Análise de Componentes Principais (ACP) — Resolução
…
(5) Top 25 genes por |loading| em CP1 e CP2

load <- pc_nci$rotation  # loadings (p x p)
ord1 <- order(abs(load[,1]), decreasing = TRUE)[1:25]
ord2 <- order(abs(load[,2]), decreasing = TRUE)[1:25]
Top_CP1 <- tibble(gene = colnames(X_raw)[ord1], loading = load[ord1,1])
Top_CP2 <- tibble(gene = colnames(X_raw)[ord2], loading = load[ord2,2])
list(Top25_CP1 = Top_CP1, Top25_CP2 = Top_CP2,
     sobreposicao = length(intersect(Top_CP1$gene, Top_CP2$gene)))

## $Top25_CP1
## # A tibble: 25 × 2
##    gene  loading
##    <chr>   <dbl>
##  1 5951  -0.0311
##  2 5874  -0.0304
##  3 5886  -0.0300
##  4 5872  -0.0296
##  5 5937  -0.0294
##  6 5868  -0.0292
##  7 5887  -0.0292
##  8 5960  -0.0290
##  9 5956  -0.0289
## 10 5902  -0.0286
## # ℹ 15 more rows
## 
## $Top25_CP2
## # A tibble: 25 × 2
##    gene  loading
##    <chr>   <dbl>
##  1 4320  -0.0406
##  2 4321  -0.0396
##  3 4327  -0.0387
##  4 4324  -0.0378
##  5 4193  -0.0370
##  6 4322  -0.0368
##  7 4325  -0.0367
##  8 4335  -0.0363
##  9 4329  -0.0360
## 10 4192  -0.0359
## # ℹ 15 more rows
## 
## $sobreposicao
## [1] 0
…
